<svg width="50" height="50" viewBox="0 0 50 50" fill="none" xmlns="http://www.w3.org/2000/svg">
<g filter="url(#filter0_d)">
<circle cx="25" cy="21" r="20" fill="white"/>
<circle cx="25" cy="21" r="19.5" stroke="#EE3322"/>
</g>
<path d="M34.7109 16.6094C34.7812 16.8906 34.8398 17.2422 34.8867 17.6641C34.957 18.0859 35.0039 18.5078 35.0273 18.9297C35.0508 19.3281 35.0625 19.7031 35.0625 20.0547C35.0859 20.4062 35.0977 20.6992 35.0977 20.9336V21.25C35.0977 23.3594 34.9688 24.918 34.7109 25.9258C34.5938 26.3242 34.3828 26.6758 34.0781 26.9805C33.7734 27.2852 33.4102 27.4961 32.9883 27.6133C32.543 27.7305 31.6992 27.8242 30.457 27.8945C29.2148 27.9414 28.0781 27.9766 27.0469 28H25.5C21.4922 28 18.9961 27.8711 18.0117 27.6133C17.0977 27.3555 16.5234 26.793 16.2891 25.9258C16.1719 25.4805 16.0781 24.8711 16.0078 24.0977C15.9609 23.3008 15.9258 22.6328 15.9023 22.0938V21.25C15.9023 19.1641 16.0312 17.6172 16.2891 16.6094C16.4062 16.1875 16.6172 15.8242 16.9219 15.5195C17.2266 15.2148 17.5898 15.0039 18.0117 14.8867C18.457 14.7695 19.3008 14.6875 20.543 14.6406C21.7852 14.5703 22.9219 14.5234 23.9531 14.5H25.5C29.5078 14.5 32.0039 14.6289 32.9883 14.8867C33.4102 15.0039 33.7734 15.2148 34.0781 15.5195C34.3828 15.8242 34.5938 16.1875 34.7109 16.6094ZM23.5312 24.1328L28.5586 21.25L23.5312 18.4023V24.1328Z" fill="#EE3322"/>
<defs>
<filter id="filter0_d" x="0" y="0" width="50" height="50" filterUnits="userSpaceOnUse" color-interpolation-filters="sRGB">
<feFlood flood-opacity="0" result="BackgroundImageFix"/>
<feColorMatrix in="SourceAlpha" type="matrix" values="0 0 0 0 0 0 0 0 0 0 0 0 0 0 0 0 0 0 127 0"/>
<feMorphology radius="1" operator="dilate" in="SourceAlpha" result="effect1_dropShadow"/>
<feOffset dy="4"/>
<feGaussianBlur stdDeviation="2"/>
<feColorMatrix type="matrix" values="0 0 0 0 0.4 0 0 0 0 0.4 0 0 0 0 0.4 0 0 0 0.25 0"/>
<feBlend mode="normal" in2="BackgroundImageFix" result="effect1_dropShadow"/>
<feBlend mode="normal" in="SourceGraphic" in2="effect1_dropShadow" result="shape"/>
</filter>
</defs>
</svg>
